{"data":[{"id":1,"attributes":{"en_term":"Accountability","mm_term":"တာဝန်ခံမှု","description":"the concept that individuals, agencies and organizations (public, private and civil society) are held responsible for reporting their activities and executing their powers properly. It also includes the responsibility for money or other entrusted property","reference":null,"createdAt":"2022-03-24T22:14:01.882Z","updatedAt":"2022-03-24T22:26:16.900Z","publishedAt":"2022-03-24T22:26:16.898Z","subterm":null}},{"id":3,"attributes":{"en_term":"Cronyism","mm_term":"လက်သင့်ရာစားတော်ခေါ်သောခရိုနီစနစ်","description":"partiality to long-standing friends, especially by appointing them to positions of authority, regardless of their qualifications, or granting privileged access to economic opportunities and/or preferential treatment in dealing with administrative procedures.","reference":"World Bank. ‘Cronysm, Economic Performances, and Unequal Opportunities’. Available at: http://pubdocs.worldbank.org/en/318721500382257099/the-unfinished-revolution-eng-chap3.pdf","createdAt":"2022-03-24T22:25:19.321Z","updatedAt":"2022-03-24T22:26:20.845Z","publishedAt":"2022-03-24T22:26:20.844Z","subterm":null}},{"id":4,"attributes":{"en_term":"Asset Recovery","mm_term":"ပိုင်ဆိုင်မှုအား ပြန်လည်ရယူခြင်း","description":"Asset recovery is the legal process through which a country, government and/or its citizens recover from another jurisdiction the resources and other assets that were stolen through corruption.","reference":null,"createdAt":"2022-03-28T00:32:46.371Z","updatedAt":"2022-03-28T01:36:03.193Z","publishedAt":"2022-03-28T01:36:03.191Z","subterm":null}},{"id":5,"attributes":{"en_term":"Bribery","mm_term":"လာဘ်ပေးလာဘ်ယူမှု","description":"the offering, promising, giving, accepting or soliciting of an advantage as an inducement for an action which is illegal, unethical or a breach of trust. Inducements can take the form of gifts, loans, fees, rewards or other advantages (taxes, services, donations, favors etc.).","reference":null,"createdAt":"2022-03-28T00:33:17.359Z","updatedAt":"2022-03-28T01:36:15.497Z","publishedAt":"2022-03-28T01:36:15.495Z","subterm":null}},{"id":6,"attributes":{"en_term":"Code of Conduct","mm_term":"ကျင့်ဝတ်စည်းကမ်း","description":"A statement of principles and values that establishes a set of expectations and standards for how an organization, government body, company, affiliated group or individual will behave, including minimal levels of compliance and disciplinary actions for the organization, its staff and volunteers.","reference":null,"createdAt":"2022-03-28T00:33:57.932Z","updatedAt":"2022-03-28T01:36:21.627Z","publishedAt":"2022-03-28T01:36:21.625Z","subterm":null}},{"id":7,"attributes":{"en_term":"Collusion","mm_term":"ပူးပေါင်းလိမ်လည်ရန်ညှိနှိုင်းထားခြင်း","description":"a secret agreement between parties, in the public and/or private sector, to conspire to commit actions aimed to deceive or commit fraud with the objective of illicit financial gain. The parties involved often are referred to as ‘cartels’.","reference":null,"createdAt":"2022-03-28T00:34:36.057Z","updatedAt":"2022-03-28T01:36:26.481Z","publishedAt":"2022-03-28T01:36:26.480Z","subterm":null}},{"id":10,"attributes":{"en_term":"Implementation Review Mechanism (IRM)","mm_term":"အကောင်အထည်ဖော်မှု ပြန်လည်သုံးသပ်ရေး လုပ်ငန်းစဉ်","description":"peer review process that assists States parties to effectively implement the Convention. In accordance with the terms of reference, each State party is reviewed by two peers - one from the same regional group - which are selected by a drawing of lots at the beginning of each year of the review cycle. The functioning and the performance of the IRM is guided and overseen by the Implementation Review Group, an open-ended intergovernmental group of States parties which is a subsidiary body of the CoSP and was created together with the IRM in Resolution 3/1.","reference":null,"createdAt":"2022-03-28T00:36:41.977Z","updatedAt":"2022-03-28T01:36:31.740Z","publishedAt":"2022-03-28T01:36:31.739Z","subterm":null}},{"id":8,"attributes":{"en_term":"Conflict of Interest","mm_term":"အကျိုးစီးပွားချင်းရောယှက်မှု","description":"situation where an individual or the entity for which they work, whether a government, business, media outlet or civil society organization, is confronted with choosing between the duties and demands of their position and their own private interests.","reference":null,"createdAt":"2022-03-28T00:35:02.457Z","updatedAt":"2022-03-28T01:36:35.386Z","publishedAt":"2022-03-28T01:36:35.385Z","subterm":null}},{"id":9,"attributes":{"en_term":"Ethics","mm_term":"ကျင့်ဝတ်","description":"based on core values and norms, a set of standards for conduct in government, companies and society that guides decisions, choices and actions.","reference":null,"createdAt":"2022-03-28T00:36:07.167Z","updatedAt":"2022-03-28T01:37:26.211Z","publishedAt":"2022-03-28T01:37:26.209Z","subterm":null}},{"id":11,"attributes":{"en_term":"Integrity","mm_term":"ဖြောင့်မတ်တည်ကြည်မှု","description":"behaviors and actions consistent with a set of moral or ethical principles and standards, embraced by individuals as well as institutions, that create a barrier to corruption.","reference":null,"createdAt":"2022-03-28T00:37:05.574Z","updatedAt":"2022-03-28T01:37:53.866Z","publishedAt":"2022-03-28T01:37:53.864Z","subterm":null}},{"id":12,"attributes":{"en_term":"Money Laundering","mm_term":"ငွေကြေးခဝါချခြင်း","description":"the process of concealing the origin, ownership or destination of illegally or dishonestly obtained money by hiding it within legitimate economic activities to make them appear legal. ","reference":null,"createdAt":"2022-03-28T00:37:36.597Z","updatedAt":"2022-03-28T01:37:59.141Z","publishedAt":"2022-03-28T01:37:59.140Z","subterm":null}},{"id":13,"attributes":{"en_term":"Morality","mm_term":"ကိုယ်ကျင့်တရား","description":"a set of personal or social standards for good or bad behavior and character. ","reference":null,"createdAt":"2022-03-28T00:37:58.676Z","updatedAt":"2022-03-28T01:38:02.137Z","publishedAt":"2022-03-28T01:38:02.135Z","subterm":null}},{"id":14,"attributes":{"en_term":"Nepotism","mm_term":"ဆွေမျိုးကောင်းစားရေးဝါဒ","description":"form of favoritism based on acquaintances and familiar relationships whereby someone in an official position exploits his or her power and authority to provide a job or favor to a family member or friend, even though he or she may not be qualified or deserving. ","reference":null,"createdAt":"2022-03-28T00:38:35.534Z","updatedAt":"2022-03-28T01:38:04.684Z","publishedAt":"2022-03-28T01:38:04.682Z","subterm":null}},{"id":15,"attributes":{"en_term":"Obstruction of justice","mm_term":"တရားမျှတမှုအားတားဆီးပိတ်ပင်ခြင်း","description":"the crime or act of willfully interfering with the process of justice and law especially by influencing, threatening, harming, or impeding a witness, potential witness, juror, or judicial or legal officer or by furnishing false information in or otherwise impeding an investigation or legal process.","reference":null,"createdAt":"2022-03-28T00:39:07.139Z","updatedAt":"2022-03-28T01:38:07.500Z","publishedAt":"2022-03-28T01:38:07.499Z","subterm":null}},{"id":17,"attributes":{"en_term":"Political Corruption","mm_term":"နိုင်ငံရေးအဂတိလိုက်စားခြင်း","description":"manipulation of policies, institutions and rules of procedure in the allocation of resources and financing by political decision makers, who abuse their position to sustain their power, status and wealth.","reference":null,"createdAt":"2022-03-28T00:40:34.126Z","updatedAt":"2022-03-28T01:38:10.313Z","publishedAt":"2022-03-28T01:38:10.312Z","subterm":null}},{"id":16,"attributes":{"en_term":"Patronage","mm_term":"အရှင်မွေးစားမှု","description":"form of favoritism in which a person is selected, regardless of qualifications or entitlement, for a job or government benefit because of affiliations or connections.","reference":null,"createdAt":"2022-03-28T00:39:38.790Z","updatedAt":"2022-03-28T01:38:15.584Z","publishedAt":"2022-03-28T01:38:15.583Z","subterm":null}},{"id":18,"attributes":{"en_term":"Private Sector","mm_term":"ပုဂ္ဂလိကကဏ္ဍ","description":"any company, household and institution that is not controlled by the public sector and which is run for private profit. Private sector corruption is characterized by groups from this sector influencing decisions and actions that lead to abuses of entrusted power.","reference":null,"createdAt":"2022-03-28T00:41:03.974Z","updatedAt":"2022-03-28T01:38:23.819Z","publishedAt":"2022-03-28T01:38:23.813Z","subterm":null}},{"id":19,"attributes":{"en_term":"Rule of Law","mm_term":"တရားဥပဒေစိုးမိုးမှု","description":"legal and political systems, structures and practices that condition a government’s actions to protect citizens’ rights and liberties, maintain law and order, and encourage the effective functioning of the country.","reference":null,"createdAt":"2022-03-28T00:41:29.231Z","updatedAt":"2022-03-28T01:38:28.480Z","publishedAt":"2022-03-28T01:38:28.478Z","subterm":null}},{"id":20,"attributes":{"en_term":"Sustainable Development Goals (SDGs)","mm_term":"စဉ်ဆက်မပြတ်ဖွံ့ဖြိုးမှုပန်းတိုင်များ","description":"The Sustainable Development Goals (SDGs) are a global agenda, adopted by countries in 2015, with a vision of ending poverty, protecting the planet and ensuring that all people enjoy peace and prosperity. The 17 SDGs and 169 targets are part of what is known as the 2030 Agenda, which recognizes \"that eradicating poverty in all its forms and dimensions, including extreme poverty, is the greatest global challenge and an indispensable requirement for sustainable development.\" In adopting the agenda, countries resolved to take the \"bold and transformative steps which are urgently needed to shift the world onto a sustainable and resilient path. As we embark on this collective journey, we pledge that no one will be left behind.\" The goals and targets are universal, meaning they apply to all countries around the world, not just poor countries. Reaching the goals requires action on all fronts – governments, businesses, civil society and people everywhere all have a role to play.","reference":null,"createdAt":"2022-03-28T00:43:06.339Z","updatedAt":"2022-03-28T01:38:32.147Z","publishedAt":"2022-03-28T01:38:32.145Z","subterm":null}},{"id":21,"attributes":{"en_term":"Tea money","mm_term":"လက်ဘက်ရည်ဖိုး","description":"a bribe used to facilitate a business dealing. ","reference":null,"createdAt":"2022-03-28T00:43:32.423Z","updatedAt":"2022-03-28T01:38:45.267Z","publishedAt":"2022-03-28T01:38:45.266Z","subterm":null}},{"id":22,"attributes":{"en_term":"Trading in influence","mm_term":"သြဇာအရှိန်အဝါရောင်းဝယ်မှု","description":"occurs when a person who has real or apparent influence on the decision-making of a public official exchanges this influence for an undue advantage.","reference":null,"createdAt":"2022-03-28T00:43:57.129Z","updatedAt":"2022-03-28T01:38:49.743Z","publishedAt":"2022-03-28T01:38:49.737Z","subterm":null}},{"id":23,"attributes":{"en_term":"Transparency","mm_term":"ပွင့်လင်းမြင်သာမှု","description":"characteristic of governments, companies, organizations and individuals of being open in the clear disclosure of information, rules, plans, processes and actions.","reference":null,"createdAt":"2022-03-28T00:44:19.071Z","updatedAt":"2022-03-28T01:38:54.443Z","publishedAt":"2022-03-28T01:38:54.441Z","subterm":null}},{"id":24,"attributes":{"en_term":"United Nations Convention Against Corruption (UNCAC)","mm_term":"အဂတိလိုက်စားမှု ဆန့်ကျင် တိုက်ဖျက်ရေး ကုလသမဂ္ဂသဘောတူစာချုပ်","description":"is the only legally binding universal anti-corruption instrument. The Convention's far-reaching approach and the mandatory character of many of its provisions make it a unique tool for developing a comprehensive response to a global problem. The Convention covers five main areas: preventive measures, criminalization and law enforcement, international cooperation, asset recovery, and technical assistance and information exchange. The Convention covers many different forms of corruption, such as bribery, trading in influence, abuse of functions, and various acts of corruption in the private sector. A highlight of the Convention is the inclusion of a specific chapter on asset recovery, aimed at returning assets to their rightful owners, including countries from which they had been taken illicitly. The vast majority of United Nations Member States are parties to the Convention.","reference":null,"createdAt":"2022-03-28T00:44:54.522Z","updatedAt":"2022-03-28T01:38:59.260Z","publishedAt":"2022-03-28T01:38:59.258Z","subterm":null}},{"id":25,"attributes":{"en_term":"Values","mm_term":"တန်ဖိုးများ","description":"term given to those ideas, behaviors, and actions that are important to us.","reference":null,"createdAt":"2022-03-28T00:45:14.485Z","updatedAt":"2022-03-28T01:39:04.860Z","publishedAt":"2022-03-28T01:39:04.858Z","subterm":null}},{"id":26,"attributes":{"en_term":"Whistleblowing","mm_term":"အများအကျိုးအတွက် ထုတ်ဖော်ပြောဆိုခြင်း","description":"making a disclosure in the public interest by an employee, director or external person, in an attempt to reveal neglect or abuses within the activities of an organization, government body or company (or one of its business partners) that threaten public interest, its integrity and reputation. ","reference":null,"createdAt":"2022-03-28T00:45:32.276Z","updatedAt":"2022-03-28T01:39:08.327Z","publishedAt":"2022-03-28T01:39:08.325Z","subterm":null}}],"meta":{"pagination":{"page":1,"pageSize":25,"pageCount":2,"total":26}}}